{
	"process_id" : 2984,
	"version" : "2018.3.14f1",
	"app_path" : "C:/Program Files/Unity/Hub/Editor/2018.3.14f1/Editor/Unity.exe",
	"app_contents_path" : "C:/Program Files/Unity/Hub/Editor/2018.3.14f1/Editor/Data"
}